#
# The dinner will begin...
H H H H H 
E H H H H 
E H H H H 
E H H H H 
E H E H H 
E H E H H 
E H E H H 
T H E H H
T H E H E 
T H T H E
T E T H E 
T E T H T
T E T E T 
H E T E T 
H T T E T
E T T E T 
E T H E T 
E T H T T
E T E T T 
E T E T H 
T T E T H
T T E T E 
T H E T E 
T H T T E
T E T T E 
T E T H E 
T E T H T
T E T E T 
H E T E T 
H T T E T
E T T E T 
E T H E T 
E T H T T
E T E T T 
E T E T H 
T T E T H
T T E T E 
T H E T E 
T H T T E
T E T T E 
T E T H E 
T E T H T
T E T E T 
H E T E T 
H T T E T
E T T E T 
E T H E T 
E T H T T
E T E T T 
E T E T H 
T T E T H
T T E T E 
T H E T E 
T H T T E
T E T T E 
T E T H E 
T E T H T
T E T E T 
H E T E T 
H T T E T
E T T E T 
E T H E T 
E T H T T
E T E T T 
E T E T H 
T T E T H
T T E T E 
T H E T E 
D H E T E
D H T T E
D E T T E 
D E T H E 
D E D H E
D E D H T
D E D E T 
D E D E D
D T D E D
D D D E D
D D D T D
D D D D D

# Diner ends... All philosophers goes to sleep...


